…
## Introduction

`ssdtools` accesses examples SSD data from the
[ssddata](https://CRAN.R-project.org/package=ssddata) package for a
range of chemicals. We will use the Boron and Cadmium datasets here as a
two component mixture example.

``` r
library(ssdtools)
ssddata::ccme_boron
#> # A tibble: 28 × 5
#>    Chemical Species                  Conc Group        Units
#>    <chr>    <chr>                   <dbl> <fct>        <chr>
#>  1 Boron    Oncorhynchus mykiss       2.1 Fish         mg/L 
#>  2 Boron    Ictalurus punctatus       2.4 Fish         mg/L 
#>  3 Boron    Micropterus salmoides     4.1 Fish         mg/L 
#>  4 Boron    Brachydanio rerio        10   Fish         mg/L 
#>  5 Boron    Carassius auratus        15.6 Fish         mg/L 
#>  6 Boron    Pimephales promelas      18.3 Fish         mg/L 
#>  7 Boron    Daphnia magna             6   Invertebrate mg/L 
#>  8 Boron    Opercularia bimarginata  10   Invertebrate mg/L 
#>  9 Boron    Ceriodaphnia dubia       13.4 Invertebrate mg/L 
#> 10 Boron    Entosiphon sulcatum      15   Invertebrate mg/L 
#> # ℹ 18 more rows
ssddata::ccme_cadmium
#> # A tibble: 36 × 5
#>    Chemical Species                   Conc Group Units
#>    <chr>    <chr>                    <dbl> <fct> <chr>
#>  1 Cadmium  Oncorhynchus mykiss       0.23 Fish  ug/L 
#>  2 Cadmium  Salvelinus confluentus    0.83 Fish  ug/L 
#>  3 Cadmium  Cottus bairdi             0.96 Fish  ug/L 
#>  4 Cadmium  Salmo salar               0.99 Fish  ug/L 
#>  5 Cadmium  Acipenser transmontanus   1.14 Fish  ug/L 
#>  6 Cadmium  Prosopium williamsoni     1.25 Fish  ug/L 
#>  7 Cadmium  Salmo trutta              1.36 Fish  ug/L 
#>  8 Cadmium  Salvelinus fontinalis     2.23 Fish  ug/L 
#>  9 Cadmium  Oncorhynchus tshawytscha  2.29 Fish  ug/L 
#> 10 Cadmium  Pimephales promelas       2.36 Fish  ug/L 
#> # ℹ 26 more rows
```
…
The model-averaged additive 1, 5, 10 and 20% hazard concentration can be
estimated via `additive_hc`. Note that for two contaminants, these form
a curve.

``` r
hc_vals_out <- additive_hc(fits)
hc_vals_out
#> # A tibble: 172 × 3
#>       boron cadmium proportion
#>       <dbl>   <dbl> <fct>     
#>  1 8.11e-14  0.0492 0.01      
#>  2 5.44e- 2  0.0427 0.01      
#>  3 1.11e- 1  0.0356 0.01      
#>  4 1.69e- 1  0.0273 0.01      
#>  5 2.26e- 1  0.0158 0.01      
#>  6 8.11e-14  0.148  0.05      
#>  7 5.44e- 2  0.143  0.05      
#>  8 1.11e- 1  0.138  0.05      
#>  9 1.69e- 1  0.133  0.05      
#> 10 2.26e- 1  0.128  0.05      
#> # ℹ 162 more rows
```
…
